{
  "migIndex": 1,
  "data": [
    {
      "path": "src/assets/fonts/Lato-Black.ttf",
      "sha1": "a001eb827743636e04f8efa7d4aeedf0541c46ac"
    },
    {
      "path": "src/assets/fonts/Lato-BlackItalic.ttf",
      "sha1": "b490ec02c69bb74f5b4f487c59e984891c8da71c"
    },
    {
      "path": "src/assets/fonts/Lato-Bold.ttf",
      "sha1": "542498221d97bee5bdbccf86ee8890bf8e8005c9"
    },
    {
      "path": "src/assets/fonts/Lato-BoldItalic.ttf",
      "sha1": "6bf491e78e16d3b9c8a55752e1bd658e15ed7f19"
    },
    {
      "path": "src/assets/fonts/Lato-Italic.ttf",
      "sha1": "190187b720ec2f2ff2e4281237e301000e09673f"
    },
    {
      "path": "src/assets/fonts/Lato-Light.ttf",
      "sha1": "ad0d178564445a535b15d417f5b18019923d3bab"
    },
    {
      "path": "src/assets/fonts/Lato-LightItalic.ttf",
      "sha1": "34388d9a3b64380c9f08d424d0adaa88a0d1650a"
    },
    {
      "path": "src/assets/fonts/Lato-Regular.ttf",
      "sha1": "e923c72eda5e50a87e18ff5c71e9ef4b3b6455a3"
    },
    {
      "path": "src/assets/fonts/Lato-Thin.ttf",
      "sha1": "07290446bee3f81ce501a3c3dbfde6097c70ca15"
    },
    {
      "path": "src/assets/fonts/Lato-ThinItalic.ttf",
      "sha1": "ff4a1a9fe2dcc41d993f4c5067a3baa1c456ff97"
    },
    {
      "path": "src/assets/fonts/Poppins-Black.ttf",
      "sha1": "645e04c53c6b5b35bce654a811ebce16af8aa721"
    },
    {
      "path": "src/assets/fonts/Poppins-BlackItalic.ttf",
      "sha1": "be4ef2aac7775a4b0179c0ecfce6cea8f7783f63"
    },
    {
      "path": "src/assets/fonts/Poppins-Bold.ttf",
      "sha1": "875cf0cecd647bcf22e79d633d868c1b1ec98dfa"
    },
    {
      "path": "src/assets/fonts/Poppins-BoldItalic.ttf",
      "sha1": "6de8952ca08d27ee77f57347d2cef4b4e26aa78f"
    },
    {
      "path": "src/assets/fonts/Poppins-ExtraBold.ttf",
      "sha1": "4b5c0750f073abd576413a0898d3b95adaf199c8"
    },
    {
      "path": "src/assets/fonts/Poppins-ExtraBoldItalic.ttf",
      "sha1": "94d3ee3acdbd00e37a715a25f2b5237666b5b8a3"
    },
    {
      "path": "src/assets/fonts/Poppins-ExtraLight.ttf",
      "sha1": "85af6582a7e6155917c605f9d3fed68c02b23b06"
    },
    {
      "path": "src/assets/fonts/Poppins-ExtraLightItalic.ttf",
      "sha1": "6fa0418f91032680d2d8fe4843009f2c80faa61d"
    },
    {
      "path": "src/assets/fonts/Poppins-Italic.ttf",
      "sha1": "e2bfcd56016c3c915221ef1c5fc1a17b0776eb91"
    },
    {
      "path": "src/assets/fonts/Poppins-Light.ttf",
      "sha1": "e247a92158e112f8bf7b638c8d95381d66b00dbb"
    },
    {
      "path": "src/assets/fonts/Poppins-LightItalic.ttf",
      "sha1": "f76102b361e705751a83b7b22fe954daf1f27dd4"
    },
    {
      "path": "src/assets/fonts/Poppins-Medium.ttf",
      "sha1": "283f21b44efbdbf276ba802be2d949a36bbc4233"
    },
    {
      "path": "src/assets/fonts/Poppins-MediumItalic.ttf",
      "sha1": "b592c62fdf88c40cfd0f031bba6423b1d4430472"
    },
    {
      "path": "src/assets/fonts/Poppins-Regular.ttf",
      "sha1": "fdd3002e7d814ee47c1c1b8487c72c6bbb3a2d00"
    },
    {
      "path": "src/assets/fonts/Poppins-SemiBold.ttf",
      "sha1": "8a4ace9392d06bcb7f8ea2f5169b07e4c383a90d"
    },
    {
      "path": "src/assets/fonts/Poppins-SemiBoldItalic.ttf",
      "sha1": "0c8bed0a5942b2388d36b11c115685d9f01700b0"
    },
    {
      "path": "src/assets/fonts/Poppins-Thin.ttf",
      "sha1": "09ba4dcd5509c8085bf88c665dcc51cbdfced27b"
    },
    {
      "path": "src/assets/fonts/Poppins-ThinItalic.ttf",
      "sha1": "fb8fccca21550e71135f92bbaf8a2e8a12c90465"
    },
    {
      "path": "src/assets/fonts/Roboto-Black.ttf",
      "sha1": "e28654c12713143bfdd72f8c559c48a19c1cbf18"
    },
    {
      "path": "src/assets/fonts/Roboto-Bold.ttf",
      "sha1": "013f1bbcbbd80991a5f00fca52a90d0d7ab8b81f"
    },
    {
      "path": "src/assets/fonts/Roboto-Italic.ttf",
      "sha1": "20420db4e13d654cbe22b5fba6296c78a6360537"
    },
    {
      "path": "src/assets/fonts/Roboto-Light.ttf",
      "sha1": "51dbae4543aaa10096e344e48fcffe468bd314a9"
    },
    {
      "path": "src/assets/fonts/Roboto-Medium.ttf",
      "sha1": "fddc8b1c688ef3baed0d5a46abf5f01f0edaf02b"
    },
    {
      "path": "src/assets/fonts/Roboto-Regular.ttf",
      "sha1": "84d102488738b0ebbc7a5087973effbd54c95bd5"
    },
    {
      "path": "src/assets/fonts/Roboto-Thin.ttf",
      "sha1": "e07c400b55ef4ac7fb5ff9a79d301712922c681b"
    },
    {
      "path": "src/assets/fonts/SFProText-Bold.ttf",
      "sha1": "632e6cea171b276e5dd1f13b152c702fbf562cee"
    },
    {
      "path": "src/assets/fonts/SFProText-Regular.ttf",
      "sha1": "b4893462f2289df6978f9462a63db9e64bcc9342"
    },
    {
      "path": "src/assets/fonts/SFProText-Semibold.ttf",
      "sha1": "9560ae412d73c7c9af72333db50464b4e597b0f9"
    }
  ]
}
